%YAML 1.1
%TAG !u! tag:unity3d.com,2011:
--- !u!78 &1
TagManager:
  serializedVersion: 2
  tags:
  - ground
  - wall
  - shootablePlatform
  - enemy
  - instantDeath
  - mutant
  - medKit
  - climbableWall
  - slope
  - flagPole
  layers:
  - Default
  - TransparentFX
  - Ignore Raycast
  - 
  - Water
  - UI
  - 
  - 
  - Player
  - PProjectile
  - Enemy
  - EProjectile
  - ShootableFloor
  - Floor
  - Drone
  - Intersection
  - medkit
  - grenade
  - slope
  - flagPole
  - 
  - 
  - 
  - 
  - 
  - 
  - 
  - 
  - 
  - 
  - 
  - 
  m_SortingLayers:
  - name: Default
    uniqueID: 0
    locked: 0
  - name: New Layer
    uniqueID: 2164960177
    locked: 0
  - name: AI&Player
    uniqueID: 1121965489
    locked: 0
  - name: UI
    uniqueID: 1183041555
    locked: 0
